{
    "$schema": "https://schema.management.azure.com/schemas/2019-04-01/deploymentTemplate.json#",
    "contentVersion": "1.0.0.0",
    "parameters": {
        "projectName": {
            "type": "string",
            "defaultValue": "[substring(resourceGroup().name, 3)]"
        },
        "virtualNetworkName": {
        "defaultValue": "[concat('vnet-', parameters('projectName'))]",
            "type": "String"
        },
        "vNetAddressSpacePre": {
            "defaultValue": "10.0",
            "type": "string"
        },
        "subnetNames": {
            "type": "array",
            "defaultValue": [
                "db",
                "api",
                "web"
            ]
        },
        "location": {
            "type": "string",
            "defaultValue": "[resourceGroup().location]",
            "metadata": {
                "description": "Location for all resources."
            }
        },
        "resourceTags": {
            "type": "object"
        }
    },
    "variables": {
        "subnetWebDelegations": [
            {
                "name": "ACIDelegationService",
                "properties": {
                    "serviceName": "Microsoft.ContainerInstance/containerGroups"
                }
            }
        ]
    },
    "resources": [
        {
            "type": "Microsoft.Network/virtualNetworks",
            "apiVersion": "2020-11-01",
            "name": "[parameters('virtualNetworkName')]",
            "location": "[parameters('location')]",
            "tags": "[parameters('resourceTags')]",
            "properties": {
                "addressSpace": {
                    "addressPrefixes": [
                        "[concat(parameters('vNetAddressSpacePre'), '.0.0/16')]"
                    ]
                },
                "virtualNetworkPeerings": [],
                "enableDdosProtection": false
            }
        },
        {
            "type": "Microsoft.Network/virtualNetworks/subnets",
            "apiVersion": "2020-11-01",
            "name": "[concat(parameters('virtualNetworkName'), '/', 'subnet-', parameters('subnetNames')[copyIndex()])]",
            "copy": {
                "name": "subnetCopy",
                "count": "[length(parameters('subnetNames'))]",
                "mode": "serial"
            },
            "properties": {
                "addressPrefix": "[concat(parameters('vNetAddressSpacePre'), '.', copyIndex(1), '.0/24')]",
                "privateEndpointNetworkPolicies": "Enabled",
                "privateLinkServiceNetworkPolicies": "Enabled",
                "delegations": "[if(equals(parameters('subnetNames')[copyIndex()],'web'), variables('subnetWebDelegations'), json('null'))]",
                "networkSecurityGroup": {
                    "id": "[resourceId('Microsoft.Network/networkSecurityGroups', concat('nsg-', parameters('projectName'), '-', parameters('subnetNames')[copyIndex()]))]"
                }
            },
            "dependsOn": [
                "[concat('Microsoft.Network/virtualNetworks/', parameters('virtualNetworkName'))]"
            ]
        },
        {
            "type": "Microsoft.Network/networkSecurityGroups",
            "apiVersion": "2019-02-01",
            "copy": {
                "name": "subnetCopy",
                "count": "[length(parameters('subnetNames'))]"
            },
            "name": "[concat('nsg-', parameters('projectName'), '-', parameters('subnetNames')[copyIndex()])]",
            "location": "[parameters('location')]",
            "tags": "[parameters('resourceTags')]",
            "properties": {
            }
        }
    ]
}